<?xml version="1.0" standalone="no"?>
<!DOCTYPE svg PUBLIC "-//W3C//DTD SVG 1.1//EN" "http://www.w3.org/Graphics/SVG/1.1/DTD/svg11.dtd">
<svg xmlns="http://www.w3.org/2000/svg">
<metadata>Copyright (C) 2022 by original authors @ fontello.com</metadata>
<defs>
<font id="fontello" horiz-adv-x="1000" >
<font-face font-family="fontello" font-weight="400" font-stretch="normal" units-per-em="1000" ascent="850" descent="-150" />
<missing-glyph horiz-adv-x="1000" />
<glyph glyph-name="twitter-bird" unicode="&#x2022;" d="M1003 349q-41-46-114-46h-6q-37-152-177-244t-305-92q-121 0-225 53t-176 151q75-72 181-72 113 0 191 83-6-1-12-1l-36 8q-24 12-24 35 0 27 41 45-10-1-19-1-29 0-54 12-33 16-51 51 22 25 69 28-98 24-112 102 27 8 53 8h8q-37 20-62 52t-24 69l1 8q155-59 257-116 30-17 76-63 32 87 68 151t89 98q-1-16-15-31 33 32 78 38-3-23-53-41 7 2 26 10t33 11 25 4q15 0 15-11 0-8-16-16t-43-15-28-9q10 1 19 1 69 0 123-52 60-60 76-143 18-6 36-6 50 0 83 19-13-30-43-47t-67-19q34-15 83-15 16 0 31 3z" horiz-adv-x="1003" />
</font>
</defs>
</svg>
